%YAML 1.1
%TAG !u! tag:unity3d.com,2011:
--- !u!1045 &1
EditorBuildSettings:
  m_ObjectHideFlags: 0
  serializedVersion: 2
  m_Scenes:
  - enabled: 1
    path: Assets/Scenes/MainMenu.unity
    guid: 210951438094a174792a9be050d63b8d
  - enabled: 1
    path: Assets/Scenes/InGame.unity
    guid: a318f713b315ba44191bcc27ac96d735
  m_configObjects: {}
